%YAML 1.1
%TAG !u! tag:unity3d.com,2011:
--- !u!114 &11400000
MonoBehaviour:
  m_ObjectHideFlags: 0
  m_CorrespondingSourceObject: {fileID: 0}
  m_PrefabInstance: {fileID: 0}
  m_PrefabAsset: {fileID: 0}
  m_GameObject: {fileID: 0}
  m_Enabled: 1
  m_EditorHideFlags: 0
  m_Script: {fileID: 11500000, guid: 71d93addc78d68f4a99491e3dfd2e00b, type: 3}
  m_Name: GeneralsConfig
  m_EditorClassIdentifier: 
  ChessList:
  - Id: General01
    Level: 1
    Health: 8
    Damage: 4
    DistanceAtt: 15
    prefabs: {fileID: 4350749784132123218, guid: 96b82d9b2b6598643af023c734e9a26f, type: 3}
    Status: 1
    Type: 1
  - Id: General02
    Level: 2
    Health: 19
    Damage: 10
    DistanceAtt: 15
    prefabs: {fileID: 8123617197492716171, guid: b2b96af638ef97f4e82d58a724d39080, type: 3}
    Status: 0
    Type: 1
