%YAML 1.1
%TAG !u! tag:unity3d.com,2011:
--- !u!114 &11400000
MonoBehaviour:
  m_ObjectHideFlags: 0
  m_CorrespondingSourceObject: {fileID: 0}
  m_PrefabInstance: {fileID: 0}
  m_PrefabAsset: {fileID: 0}
  m_GameObject: {fileID: 0}
  m_Enabled: 1
  m_EditorHideFlags: 0
  m_Script: {fileID: 11500000, guid: 71d93addc78d68f4a99491e3dfd2e00b, type: 3}
  m_Name: SoldiersConfig
  m_EditorClassIdentifier: 
  ChessList:
  - Id: Soldier01
    Level: 1
    Health: 20
    Damage: 3
    DistanceAtt: 1
    prefabs: {fileID: 5926159377782657406, guid: 96827c7bf115a2940a4d0d16b5cdbfee, type: 3}
    Status: 1
    Type: 0
  - Id: Soldier02
    Level: 2
    Health: 47
    Damage: 7
    DistanceAtt: 1
    prefabs: {fileID: 4545313880333709125, guid: ff5440183347b26498850dddeb186ec7, type: 3}
    Status: 0
    Type: 0
  - Id: Soldier03
    Level: 3
    Health: 112
    Damage: 17
    DistanceAtt: 1
    prefabs: {fileID: 931596036414440320, guid: de795e310409907469dd74a57c3c4253, type: 3}
    Status: 0
    Type: 0
  - Id: Soldier04
    Level: 4
    Health: 264
    Damage: 40
    DistanceAtt: 1
    prefabs: {fileID: 8933593121776857003, guid: 82bde669fa8893440b88d59b5d2f3508, type: 3}
    Status: 0
    Type: 0
  - Id: Soldier05
    Level: 5
    Health: 622
    Damage: 93
    DistanceAtt: 1
    prefabs: {fileID: 9054063827527196659, guid: 1f2a57da25ddcf0489478e4564089de4, type: 3}
    Status: 0
    Type: 0
  - Id: Soldier06
    Level: 5
    Health: 1000
    Damage: 221
    DistanceAtt: 1
    prefabs: {fileID: 6040239935999032338, guid: 32754a13ce037bc458bf1b7a3acf41ba, type: 3}
    Status: 0
    Type: 0
  - Id: Soldier07
    Level: 5
    Health: 3000
    Damage: 521
    DistanceAtt: 1
    prefabs: {fileID: 6596030580031735620, guid: 9cc48fbd80953a3499f8d8e1f7b4e961, type: 3}
    Status: 0
    Type: 0
  - Id: Soldier08
    Level: 5
    Health: 8000
    Damage: 1000
    DistanceAtt: 1
    prefabs: {fileID: 2063578650610761318, guid: a5d393bea184c2843aa3e70a20082cab, type: 3}
    Status: 0
    Type: 0
